Folder PATH listing for volume YosuaExt6Master3
Volume serial number is 8244-47F0
I:.
+---[Backup]
|   \---Salvage Mice (2011) [JMovie]
+---[Nudity]
|   +---A Decent Woman (2016)
|   +---A Girl's Guide to 21st Century Sex (2006)
|   +---Act Naturally (2011)
|   +---American Nudist (2011)
|   +---Barefoot to the Neck (2009)
|   +---Cap D'Agde Naked City (2000)
|   +---Confetti (2006)
|   +---Expulsion from Paradise (2001)
|   +---Lepota poroka (1986)
|   +---Maslin Beach (1997)
|   +---Nude Tuesday (2022)
|   +---Patrick (2019)
|   +---Puberty - Sexual Education for Boys and Girls (1991)
|   +---Sex-Positive (2024)
|   +---Summer Lovers (1982)
|   \---Textiles (2004)
+---[RRated]
|   +---Baader Meinhof Complex, The (2008)
|   +---Bikini Spring Break (2012)
|   +---Cat Run (2011,2014)
|   +---Demoniacs, The (1974)
|   +---Driving My Wifes Lover (2007) [KMovie]
|   +---Emerald Forest, The (1985)
|   +---Jailbait (2014)
|   +---Locked Up (2004)
|   +---Locked Up (2017)
|   +---Romance (1999)
|   +---Sirens (1994)
|   \---X (2022)
\---[XRated]
    +---009-1 - The End of the Beginning (2013) [JMovie]
    +---9 Songs (2004)
    +---A Night in Nude (1993,2010) [JMovie]
    +---All About Anna (2005)
    +---All Ladies Do It (1992)
    +---Baise-moi (2000)
    +---Below Her Mouth (2016)
    +---Caged Women (1980)
    +---Cheeky (2000)
    +---Countess Perverse (1975)
    +---Desire (2005) [JMovie]
    +---Devil Hunter (1980)
    +---Diary of a Nymphomaniac (2008)
    +---Diet of Sex (2014)
    +---Disappear (2005) [JMovie]
    +---Fallo! (2003)
    +---Fantasy Island (2018)
    +---Forbidden Sex Adultery (2011) [KMovie]
    +---Girl House (2014)
    +---Girl's Blood (2014) [JMovie]
    +---Gun Woman (2014) [JMovie]
    +---Hentai Kamen (2013,2016) [JMovie]
    +---High Heel Homicide (2017)
    +---Hong Hun Pisawat (2013) [TMovie]
    +---In the Realm of the Senses (1976) [JMovie]
    +---Intimacy (2001)
    +---Journey To The West [CMovie]
    +---Kekko Kamen 2004 [JMovie]
    +---Ken Park (2002)
    +---Kid Cannabis (2014)
    +---La Belle (2000) [KMovie]
    +---Lazy Hazy Crazy (2015) [CMovie]
    +---Lie with Me (2005)
    +---Love (2015)
    +---Lust, Caution (2007) [CMovie]
    +---Malabimba (1979)
    +---Mansion of the Living Dead (1982)
    +---Monamour (2006)
    +---Natalie (2010) [KMovie]
    +---Nymphomaniac (2013,2013)
    +---Oh Invisible Man (2010) [JMovie]
    +---Paprika (1991)
    +---Picture of Beauty (2017)
    +---Q (2011)
    +---Scarlet Innocence (2014) [KMovie]
    +---Scud Series (2008,2009,2010,2011,2013,2015,2017) [CMovie]
    +---Secrets of a French Maid (1980)
    +---Sex Is Crazy (1981)
    +---Shining Sex (1976)
    +---Shortbus (2006)
    +---Starlet (2012)
    +---Stranger by the Lake (2013)
    +---Submission of Emma Marx, The (2013,2015,2016,2017)
    +---Suntan (2016)
    +---Synonyms (2019)
    +---Taste of Life (2017)
    +---Teacher Intern Gang Rape [JMovie]
    +---Twentynine Palms (2003)
    +---Violation (2020)
    +---Voyeur, The (1994)
    +---Wolf Mother (2016)
    +---X - Night of Vengeance (2011)
    \---Zero Woman (2007) [JMovie]
